{
	"$ref": "#/definitions/Inquiry",
	"definitions": {
		"Inquiry": {
			"type": "object",
			"additionalProperties": false,
			"properties": {
				"product": {
					"type": "string"
				},
				"email": {
					"type": "string"
				},
				"nominal": {
					"type": "number"
				},
				"transactionid": {
					"type": "string"
				}
			},
			"required": [
				"email",
				"nominal",
				"product",
				"transactionid"
			],
			"title": "inquiry"
		}
	}
}